{
    "name": "SuggestSkill",
    "fields": [
        {
            "fieldName": "name",
            "fieldType": "String",
            "fieldValidateRules": [
                "required"
            ]
        },
        {
            "fieldName": "description",
            "fieldType": "String"
        },
        {
            "fieldName": "link",
            "fieldType": "String"
        },
        {
            "fieldName": "status",
            "fieldType": "Status",
            "fieldValues": "PENDING,ACCEPT,DECLINE"
        }
    ],
    "relationships": [
        {
            "relationshipType": "many-to-one",
            "otherEntityName": "expertise",
            "otherEntityRelationshipName": "suggestSkill",
            "relationshipName": "expertise",
            "otherEntityField": "id"
        }
    ],
    "changelogDate": "20190515032733",
    "entityTableName": "suggest_skill",
    "dto": "mapstruct",
    "pagination": "pagination",
    "service": "serviceClass",
    "jpaMetamodelFiltering": false,
    "fluentMethods": true,
    "clientRootFolder": "job",
    "applications": "*",
    "microserviceName": "job"
}